<?xml version="1.0" encoding="UTF-8" standalone="no"?>
<!DOCTYPE svg PUBLIC "-//W3C//DTD SVG 1.1//EN"
 "http://www.w3.org/Graphics/SVG/1.1/DTD/svg11.dtd">
<!-- Generated by graphviz version 2.38.0 (20140413.2041)
 -->
<!-- Title: %3 Pages: 1 -->
<svg width="490pt" height="98pt"
 viewBox="0.00 0.00 490.00 98.00" xmlns="http://www.w3.org/2000/svg" xmlns:xlink="http://www.w3.org/1999/xlink">
<g id="graph0" class="graph" transform="scale(1 1) rotate(0) translate(4 94)">
<title>%3</title>
<polygon fill="white" stroke="none" points="-4,4 -4,-94 486,-94 486,4 -4,4"/>
<!-- A -->
<g id="node1" class="node"><title>A</title>
<polygon fill="none" stroke="black" points="310,-82 173,-82 173,-46 310,-46 310,-82"/>
<text text-anchor="middle" x="241.5" y="-60.3" font-family="Times,serif" font-size="14.00">com.foo.teamA:A:2.1</text>
</g>
<!-- B -->
<g id="node2" class="node"><title>B</title>
<polygon fill="none" stroke="black" points="464,-90 364,-90 364,-54 464,-54 464,-90"/>
<text text-anchor="middle" x="414" y="-68.3" font-family="Times,serif" font-size="14.00">org.other:B:1.0</text>
</g>
<!-- A&#45;&gt;B -->
<g id="edge1" class="edge"><title>A&#45;&gt;B</title>
<path fill="none" stroke="black" d="M310.376,-67.1848C324.584,-67.8515 339.465,-68.5497 353.348,-69.2011"/>
<polygon fill="black" stroke="black" points="353.588,-72.7161 363.742,-69.6888 353.917,-65.7238 353.588,-72.7161"/>
</g>
<!-- C -->
<g id="node3" class="node"><title>C</title>
<polygon fill="none" stroke="black" points="482,-36 346,-36 346,-0 482,-0 482,-36"/>
<text text-anchor="middle" x="414" y="-14.3" font-family="Times,serif" font-size="14.00">com.foo.teamC:C:1.5</text>
</g>
<!-- A&#45;&gt;C -->
<g id="edge2" class="edge"><title>A&#45;&gt;C</title>
<path fill="none" stroke="black" d="M309.397,-45.9516C318.235,-43.5671 327.349,-41.1081 336.335,-38.6837"/>
<polygon fill="black" stroke="black" points="337.273,-42.0559 346.016,-36.0718 335.45,-35.2976 337.273,-42.0559"/>
</g>
<!-- N -->
<g id="node4" class="node"><title>N</title>
<polygon fill="none" stroke="black" points="137,-59 0,-59 0,-23 137,-23 137,-59"/>
<text text-anchor="middle" x="68.5" y="-37.3" font-family="Times,serif" font-size="14.00">com.foo.teamA:N:0.1</text>
</g>
<!-- N&#45;&gt;A -->
<g id="edge3" class="edge"><title>N&#45;&gt;A</title>
<path fill="none" stroke="black" d="M137.084,-50.0902C145.538,-51.2274 154.237,-52.3974 162.83,-53.5532"/>
<polygon fill="black" stroke="black" points="162.47,-57.0362 172.847,-54.9005 163.403,-50.0986 162.47,-57.0362"/>
</g>
<!-- N&#45;&gt;C -->
<g id="edge4" class="edge"><title>N&#45;&gt;C</title>
<path fill="none" stroke="black" d="M137.365,-36.4559C194.476,-32.6319 276.137,-27.1641 335.747,-23.1727"/>
<polygon fill="black" stroke="black" points="336.118,-26.6558 345.862,-22.4954 335.65,-19.6714 336.118,-26.6558"/>
</g>
</g>
</svg>
